<svg xmlns="http://www.w3.org/2000/svg" xmlns:xlink="http://www.w3.org/1999/xlink" viewBox="0 0 50 50" version="1.1">
<g>
<path style="fill:#eeeeee" d="M 5 2 C 3.355469 2 2 3.355469 2 5 L 2 45 C 2 46.644531 3.355469 48 5 48 L 45 48 C 46.644531 48 48 46.644531 48 45 L 48 12 C 48.007813 11.734375 47.90625 11.472656 47.71875 11.28125 L 38.71875 2.28125 C 38.527344 2.09375 38.265625 1.992188 38 2 Z M 5 4 L 10 4 L 10 19 C 10 20.09375 10.90625 21 12 21 L 35 21 C 36.09375 21 37 20.09375 37 19 L 37 4 L 37.5625 4 L 46 12.4375 L 46 45 C 46 45.566406 45.566406 46 45 46 L 40 46 L 40 28.8125 C 40 27.277344 38.722656 26 37.1875 26 L 12.8125 26 C 11.277344 26 10 27.277344 10 28.8125 L 10 46 L 5 46 C 4.433594 46 4 45.566406 4 45 L 4 5 C 4 4.433594 4.433594 4 5 4 Z M 12 4 L 35 4 L 35 19 L 12 19 Z M 28.8125 6 C 28.335938 6.089844 27.992188 6.511719 28 7 L 28 16 C 28 16.550781 28.449219 17 29 17 L 32 17 C 32.550781 17 33 16.550781 33 16 L 33 7 C 33 6.449219 32.550781 6 32 6 L 29 6 C 28.96875 6 28.9375 6 28.90625 6 C 28.875 6 28.84375 6 28.8125 6 Z M 30 8 L 31 8 L 31 15 L 30 15 Z M 12.8125 28 L 37.1875 28 C 37.632813 28 38 28.367188 38 28.8125 L 38 46 L 12 46 L 12 28.8125 C 12 28.367188 12.367188 28 12.8125 28 Z M 6 41 L 6 43 L 8 43 L 8 41 Z M 42 41 L 42 43 L 44 43 L 44 41 Z "></path>
</g>
</svg>
