<svg xmlns="http://www.w3.org/2000/svg" xmlns:xlink="http://www.w3.org/1999/xlink" version="1.1" id="two_x5F_tone" x="0px" y="0px" viewBox="0 0 24 24" style="enable-background:new 0 0 24 24;" xml:space="preserve">
<polygon style="fill:#eeeeee;" points="22,7 18,3 18,11 "></polygon>
<line style="fill:#eeeeee;stroke:#eeeeee;stroke-width:2;stroke-miterlimit:10;" x1="19" y1="7" x2="2" y2="7"></line>
<polygon style="fill:#eeeeee;" points="2,17 6,13 6,21 "></polygon>
<line style="fill:#eeeeee;stroke:#eeeeee;stroke-width:2;stroke-miterlimit:10;" x1="5" y1="17" x2="22" y2="17"></line>
</svg>