[
    {
        "timestamp": "value",
        "duration": "bValue",
        "options": {
            "x": "10",
            "y": "10"
        }
    },
    {
        "x": null
    },
    {
        "x": null
    },
    {
        "x": null
    }
]